﻿[
  {
    "outputFile": "Views/Themes/Default/Content/css/site.css",
    "inputFile": "Views/Themes/Default/Content/sass/site.scss"
  },
  {
    "outputFile": "Views/Themes/B2B/Content/css/site.css",
    "inputFile": "Views/Themes/B2B/Content/sass/site.scss"
  },
  {
    "outputFile": "Views/Themes/ModernB2C/Content/css/site.css",
    "inputFile": "Views/Themes/ModernB2C/Content/sass/site.scss"
  },
  {
    "outputFile": "Views/Themes/DrewShoe/Content/css/site.css",
    "inputFile": "Views/Themes/DrewShoe/Content/sass/site.scss"
  },
  {
    "outputFile": "Views/Themes/RosHommerson/Content/css/site.css",
    "inputFile": "Views/Themes/RosHommerson/Content/sass/site.scss"
  },

  //For JS
  {
    "outputFile": "Views/Themes/Default/Scripts/lib/event.min.js",
    "inputFile": "Views/Themes/Default/Scripts/lib/event.js"
  },
  {
    "outputFile": "Views/Themes/ModernB2C/Scripts/lib/event.min.js",
    "inputFile": "Views/Themes/ModernB2C/Scripts/lib/event.js"
  },
  {
    "outputFile": "Views/Themes/DrewShoe/Scripts/lib/event.min.js",
    "inputFile": "Views/Themes/DrewShoe/Scripts/lib/event.js"
  },
  {
    "outputFile": "Views/Themes/RosHommerson/Scripts/lib/event.min.js",
    "inputFile": "Views/Themes/RosHommerson/Scripts/lib/event.js"
  }
]