D:\9.6.2 ZnodeUpgrade\ZnodeMultifront\Projects\Znode.Engine.Admin\Scripts\ClientResource\Resource.de.js
D:\9.6.2 ZnodeUpgrade\ZnodeMultifront\Projects\Znode.Engine.Admin\Scripts\ClientResource\Resource.de.js.map
D:\9.6.2 ZnodeUpgrade\ZnodeMultifront\Projects\Znode.Engine.Admin\Scripts\ClientResource\Resource.en.js
D:\9.6.2 ZnodeUpgrade\ZnodeMultifront\Projects\Znode.Engine.Admin\Scripts\ClientResource\Resource.en.js.map
D:\9.6.2 ZnodeUpgrade\ZnodeMultifront\Projects\Znode.Engine.Admin\Scripts\ClientResource\Resource.fr.js
D:\9.6.2 ZnodeUpgrade\ZnodeMultifront\Projects\Znode.Engine.Admin\Scripts\ClientResource\Resource.fr.js.map
D:\9.6.2 ZnodeUpgrade\ZnodeMultifront\Projects\Znode.Engine.Admin\Scripts\Core\Common\ZnodeGlobal.js
D:\9.6.2 ZnodeUpgrade\ZnodeMultifront\Projects\Znode.Engine.Admin\Scripts\Core\Common\ZnodeGlobal.js.map
D:\9.6.2 ZnodeUpgrade\ZnodeMultifront\Projects\Znode.Engine.Admin\Scripts\Core\Common\ZnodeHelper.js
D:\9.6.2 ZnodeUpgrade\ZnodeMultifront\Projects\Znode.Engine.Admin\Scripts\Core\Common\ZnodeHelper.js.map
D:\9.6.2 ZnodeUpgrade\ZnodeMultifront\Projects\Znode.Engine.Admin\Scripts\Core\Controls\DateTimeRangePicker\ZnodeDateRangePicker.js
D:\9.6.2 ZnodeUpgrade\ZnodeMultifront\Projects\Znode.Engine.Admin\Scripts\Core\Controls\DateTimeRangePicker\ZnodeDateRangePicker.js.map
D:\9.6.2 ZnodeUpgrade\ZnodeMultifront\Projects\Znode.Engine.Admin\Scripts\Core\Controls\SaveCancelButton.js
D:\9.6.2 ZnodeUpgrade\ZnodeMultifront\Projects\Znode.Engine.Admin\Scripts\Core\Controls\SaveCancelButton.js.map
D:\9.6.2 ZnodeUpgrade\ZnodeMultifront\Projects\Znode.Engine.Admin\Scripts\Core\Controls\TextBoxEditorFor.js
D:\9.6.2 ZnodeUpgrade\ZnodeMultifront\Projects\Znode.Engine.Admin\Scripts\Core\Controls\TextBoxEditorFor.js.map
D:\9.6.2 ZnodeUpgrade\ZnodeMultifront\Projects\Znode.Engine.Admin\Scripts\Core\Controls\TreeView.js
D:\9.6.2 ZnodeUpgrade\ZnodeMultifront\Projects\Znode.Engine.Admin\Scripts\Core\Controls\TreeView.js.map
D:\9.6.2 ZnodeUpgrade\ZnodeMultifront\Projects\Znode.Engine.Admin\Scripts\Core\Controls\WebGrid\CustomJurl.js
D:\9.6.2 ZnodeUpgrade\ZnodeMultifront\Projects\Znode.Engine.Admin\Scripts\Core\Controls\WebGrid\CustomJurl.js.map
D:\9.6.2 ZnodeUpgrade\ZnodeMultifront\Projects\Znode.Engine.Admin\Scripts\Core\Controls\WebGrid\DynamicGrid.js
D:\9.6.2 ZnodeUpgrade\ZnodeMultifront\Projects\Znode.Engine.Admin\Scripts\Core\Controls\WebGrid\DynamicGrid.js.map
D:\9.6.2 ZnodeUpgrade\ZnodeMultifront\Projects\Znode.Engine.Admin\Scripts\Core\Controls\WebGrid\GridPager.js
D:\9.6.2 ZnodeUpgrade\ZnodeMultifront\Projects\Znode.Engine.Admin\Scripts\Core\Controls\WebGrid\GridPager.js.map
D:\9.6.2 ZnodeUpgrade\ZnodeMultifront\Projects\Znode.Engine.Admin\Scripts\Core\Controls\ZnodeCollapsibleGrid.js
D:\9.6.2 ZnodeUpgrade\ZnodeMultifront\Projects\Znode.Engine.Admin\Scripts\Core\Controls\ZnodeCollapsibleGrid.js.map
D:\9.6.2 ZnodeUpgrade\ZnodeMultifront\Projects\Znode.Engine.Admin\Scripts\Core\Controls\ZnodeMultiSelect.js
D:\9.6.2 ZnodeUpgrade\ZnodeMultifront\Projects\Znode.Engine.Admin\Scripts\Core\Controls\ZnodeMultiSelect.js.map
D:\9.6.2 ZnodeUpgrade\ZnodeMultifront\Projects\Znode.Engine.Admin\Scripts\Core\Controls\ZnodeProgressNotifier.js
D:\9.6.2 ZnodeUpgrade\ZnodeMultifront\Projects\Znode.Engine.Admin\Scripts\Core\Controls\ZnodeProgressNotifier.js.map
D:\9.6.2 ZnodeUpgrade\ZnodeMultifront\Projects\Znode.Engine.Admin\Scripts\Core\Endpoint\CustomEndpoint.js
D:\9.6.2 ZnodeUpgrade\ZnodeMultifront\Projects\Znode.Engine.Admin\Scripts\Core\Endpoint\CustomEndpoint.js.map
D:\9.6.2 ZnodeUpgrade\ZnodeMultifront\Projects\Znode.Engine.Admin\Scripts\Core\Endpoint\ZnodeEndpoint.js
D:\9.6.2 ZnodeUpgrade\ZnodeMultifront\Projects\Znode.Engine.Admin\Scripts\Core\Endpoint\ZnodeEndpoint.js.map
D:\9.6.2 ZnodeUpgrade\ZnodeMultifront\Projects\Znode.Engine.Admin\Scripts\Core\Model\Znode.Model.js
D:\9.6.2 ZnodeUpgrade\ZnodeMultifront\Projects\Znode.Engine.Admin\Scripts\Core\Model\Znode.Model.js.map
D:\9.6.2 ZnodeUpgrade\ZnodeMultifront\Projects\Znode.Engine.Admin\Scripts\Core\Znode\Account.js
D:\9.6.2 ZnodeUpgrade\ZnodeMultifront\Projects\Znode.Engine.Admin\Scripts\Core\Znode\Account.js.map
D:\9.6.2 ZnodeUpgrade\ZnodeMultifront\Projects\Znode.Engine.Admin\Scripts\Core\Znode\AddonGroup.js
D:\9.6.2 ZnodeUpgrade\ZnodeMultifront\Projects\Znode.Engine.Admin\Scripts\Core\Znode\AddonGroup.js.map
D:\9.6.2 ZnodeUpgrade\ZnodeMultifront\Projects\Znode.Engine.Admin\Scripts\Core\Znode\AttributeFamily.js
D:\9.6.2 ZnodeUpgrade\ZnodeMultifront\Projects\Znode.Engine.Admin\Scripts\Core\Znode\AttributeFamily.js.map
D:\9.6.2 ZnodeUpgrade\ZnodeMultifront\Projects\Znode.Engine.Admin\Scripts\Core\Znode\AttributeGroup.js
D:\9.6.2 ZnodeUpgrade\ZnodeMultifront\Projects\Znode.Engine.Admin\Scripts\Core\Znode\AttributeGroup.js.map
D:\9.6.2 ZnodeUpgrade\ZnodeMultifront\Projects\Znode.Engine.Admin\Scripts\Core\Znode\Attributes.js
D:\9.6.2 ZnodeUpgrade\ZnodeMultifront\Projects\Znode.Engine.Admin\Scripts\Core\Znode\Attributes.js.map
D:\9.6.2 ZnodeUpgrade\ZnodeMultifront\Projects\Znode.Engine.Admin\Scripts\Core\Znode\BlogNews.js
D:\9.6.2 ZnodeUpgrade\ZnodeMultifront\Projects\Znode.Engine.Admin\Scripts\Core\Znode\BlogNews.js.map
D:\9.6.2 ZnodeUpgrade\ZnodeMultifront\Projects\Znode.Engine.Admin\Scripts\Core\Znode\Brand.js
D:\9.6.2 ZnodeUpgrade\ZnodeMultifront\Projects\Znode.Engine.Admin\Scripts\Core\Znode\Brand.js.map
D:\9.6.2 ZnodeUpgrade\ZnodeMultifront\Projects\Znode.Engine.Admin\Scripts\Core\Znode\Catalog.js
D:\9.6.2 ZnodeUpgrade\ZnodeMultifront\Projects\Znode.Engine.Admin\Scripts\Core\Znode\Catalog.js.map
D:\9.6.2 ZnodeUpgrade\ZnodeMultifront\Projects\Znode.Engine.Admin\Scripts\Core\Znode\Category.js
D:\9.6.2 ZnodeUpgrade\ZnodeMultifront\Projects\Znode.Engine.Admin\Scripts\Core\Znode\Category.js.map
D:\9.6.2 ZnodeUpgrade\ZnodeMultifront\Projects\Znode.Engine.Admin\Scripts\Core\Znode\CategoryAttribute.js
D:\9.6.2 ZnodeUpgrade\ZnodeMultifront\Projects\Znode.Engine.Admin\Scripts\Core\Znode\CategoryAttribute.js.map
D:\9.6.2 ZnodeUpgrade\ZnodeMultifront\Projects\Znode.Engine.Admin\Scripts\Core\Znode\Config.js
D:\9.6.2 ZnodeUpgrade\ZnodeMultifront\Projects\Znode.Engine.Admin\Scripts\Core\Znode\Config.js.map
D:\9.6.2 ZnodeUpgrade\ZnodeMultifront\Projects\Znode.Engine.Admin\Scripts\Core\Znode\Content.js
D:\9.6.2 ZnodeUpgrade\ZnodeMultifront\Projects\Znode.Engine.Admin\Scripts\Core\Znode\Content.js.map
D:\9.6.2 ZnodeUpgrade\ZnodeMultifront\Projects\Znode.Engine.Admin\Scripts\Core\Znode\ContentWidget.js
D:\9.6.2 ZnodeUpgrade\ZnodeMultifront\Projects\Znode.Engine.Admin\Scripts\Core\Znode\ContentWidget.js.map
D:\9.6.2 ZnodeUpgrade\ZnodeMultifront\Projects\Znode.Engine.Admin\Scripts\Core\Znode\Customer.js
D:\9.6.2 ZnodeUpgrade\ZnodeMultifront\Projects\Znode.Engine.Admin\Scripts\Core\Znode\Customer.js.map
D:\9.6.2 ZnodeUpgrade\ZnodeMultifront\Projects\Znode.Engine.Admin\Scripts\Core\Znode\Dashboard.js
D:\9.6.2 ZnodeUpgrade\ZnodeMultifront\Projects\Znode.Engine.Admin\Scripts\Core\Znode\Dashboard.js.map
D:\9.6.2 ZnodeUpgrade\ZnodeMultifront\Projects\Znode.Engine.Admin\Scripts\Core\Znode\DevExpressReportViewer.js
D:\9.6.2 ZnodeUpgrade\ZnodeMultifront\Projects\Znode.Engine.Admin\Scripts\Core\Znode\DevExpressReportViewer.js.map
D:\9.6.2 ZnodeUpgrade\ZnodeMultifront\Projects\Znode.Engine.Admin\Scripts\Core\Znode\Diagnostics.js
D:\9.6.2 ZnodeUpgrade\ZnodeMultifront\Projects\Znode.Engine.Admin\Scripts\Core\Znode\Diagnostics.js.map
D:\9.6.2 ZnodeUpgrade\ZnodeMultifront\Projects\Znode.Engine.Admin\Scripts\Core\Znode\EmailTemplate.js
D:\9.6.2 ZnodeUpgrade\ZnodeMultifront\Projects\Znode.Engine.Admin\Scripts\Core\Znode\EmailTemplate.js.map
D:\9.6.2 ZnodeUpgrade\ZnodeMultifront\Projects\Znode.Engine.Admin\Scripts\Core\Znode\ERPConfigurator.js
D:\9.6.2 ZnodeUpgrade\ZnodeMultifront\Projects\Znode.Engine.Admin\Scripts\Core\Znode\ERPConfigurator.js.map
D:\9.6.2 ZnodeUpgrade\ZnodeMultifront\Projects\Znode.Engine.Admin\Scripts\Core\Znode\FormBuilder.js
D:\9.6.2 ZnodeUpgrade\ZnodeMultifront\Projects\Znode.Engine.Admin\Scripts\Core\Znode\FormBuilder.js.map
D:\9.6.2 ZnodeUpgrade\ZnodeMultifront\Projects\Znode.Engine.Admin\Scripts\Core\Znode\GeneralSetting.js
D:\9.6.2 ZnodeUpgrade\ZnodeMultifront\Projects\Znode.Engine.Admin\Scripts\Core\Znode\GeneralSetting.js.map
D:\9.6.2 ZnodeUpgrade\ZnodeMultifront\Projects\Znode.Engine.Admin\Scripts\Core\Znode\GiftCard.js
D:\9.6.2 ZnodeUpgrade\ZnodeMultifront\Projects\Znode.Engine.Admin\Scripts\Core\Znode\GiftCard.js.map
D:\9.6.2 ZnodeUpgrade\ZnodeMultifront\Projects\Znode.Engine.Admin\Scripts\Core\Znode\GlobalAttribute.js
D:\9.6.2 ZnodeUpgrade\ZnodeMultifront\Projects\Znode.Engine.Admin\Scripts\Core\Znode\GlobalAttribute.js.map
D:\9.6.2 ZnodeUpgrade\ZnodeMultifront\Projects\Znode.Engine.Admin\Scripts\Core\Znode\GlobalAttributeEntity.js
D:\9.6.2 ZnodeUpgrade\ZnodeMultifront\Projects\Znode.Engine.Admin\Scripts\Core\Znode\GlobalAttributeEntity.js.map
D:\9.6.2 ZnodeUpgrade\ZnodeMultifront\Projects\Znode.Engine.Admin\Scripts\Core\Znode\GlobalAttributeFamily.js
D:\9.6.2 ZnodeUpgrade\ZnodeMultifront\Projects\Znode.Engine.Admin\Scripts\Core\Znode\GlobalAttributeFamily.js.map
D:\9.6.2 ZnodeUpgrade\ZnodeMultifront\Projects\Znode.Engine.Admin\Scripts\Core\Znode\GlobalAttributeGroup.js
D:\9.6.2 ZnodeUpgrade\ZnodeMultifront\Projects\Znode.Engine.Admin\Scripts\Core\Znode\GlobalAttributeGroup.js.map
D:\9.6.2 ZnodeUpgrade\ZnodeMultifront\Projects\Znode.Engine.Admin\Scripts\Core\Znode\GlobalConfiguration.js
D:\9.6.2 ZnodeUpgrade\ZnodeMultifront\Projects\Znode.Engine.Admin\Scripts\Core\Znode\GlobalConfiguration.js.map
D:\9.6.2 ZnodeUpgrade\ZnodeMultifront\Projects\Znode.Engine.Admin\Scripts\Core\Znode\Highlight.js
D:\9.6.2 ZnodeUpgrade\ZnodeMultifront\Projects\Znode.Engine.Admin\Scripts\Core\Znode\Highlight.js.map
D:\9.6.2 ZnodeUpgrade\ZnodeMultifront\Projects\Znode.Engine.Admin\Scripts\Core\Znode\Import.js
D:\9.6.2 ZnodeUpgrade\ZnodeMultifront\Projects\Znode.Engine.Admin\Scripts\Core\Znode\Import.js.map
D:\9.6.2 ZnodeUpgrade\ZnodeMultifront\Projects\Znode.Engine.Admin\Scripts\Core\Znode\Inventory.js
D:\9.6.2 ZnodeUpgrade\ZnodeMultifront\Projects\Znode.Engine.Admin\Scripts\Core\Znode\Inventory.js.map
D:\9.6.2 ZnodeUpgrade\ZnodeMultifront\Projects\Znode.Engine.Admin\Scripts\Core\Znode\Login.js
D:\9.6.2 ZnodeUpgrade\ZnodeMultifront\Projects\Znode.Engine.Admin\Scripts\Core\Znode\Login.js.map
D:\9.6.2 ZnodeUpgrade\ZnodeMultifront\Projects\Znode.Engine.Admin\Scripts\Core\Znode\LogMessage.js
D:\9.6.2 ZnodeUpgrade\ZnodeMultifront\Projects\Znode.Engine.Admin\Scripts\Core\Znode\LogMessage.js.map
D:\9.6.2 ZnodeUpgrade\ZnodeMultifront\Projects\Znode.Engine.Admin\Scripts\Core\Znode\Media.js
D:\9.6.2 ZnodeUpgrade\ZnodeMultifront\Projects\Znode.Engine.Admin\Scripts\Core\Znode\Media.js.map
D:\9.6.2 ZnodeUpgrade\ZnodeMultifront\Projects\Znode.Engine.Admin\Scripts\Core\Znode\MediaConfiguration.js
D:\9.6.2 ZnodeUpgrade\ZnodeMultifront\Projects\Znode.Engine.Admin\Scripts\Core\Znode\MediaConfiguration.js.map
D:\9.6.2 ZnodeUpgrade\ZnodeMultifront\Projects\Znode.Engine.Admin\Scripts\Core\Znode\MediaManagerTools.js
D:\9.6.2 ZnodeUpgrade\ZnodeMultifront\Projects\Znode.Engine.Admin\Scripts\Core\Znode\MediaManagerTools.js.map
D:\9.6.2 ZnodeUpgrade\ZnodeMultifront\Projects\Znode.Engine.Admin\Scripts\Core\Znode\MyReports.js
D:\9.6.2 ZnodeUpgrade\ZnodeMultifront\Projects\Znode.Engine.Admin\Scripts\Core\Znode\MyReports.js.map
D:\9.6.2 ZnodeUpgrade\ZnodeMultifront\Projects\Znode.Engine.Admin\Scripts\Core\Znode\Order.js
D:\9.6.2 ZnodeUpgrade\ZnodeMultifront\Projects\Znode.Engine.Admin\Scripts\Core\Znode\Order.js.map
D:\9.6.2 ZnodeUpgrade\ZnodeMultifront\Projects\Znode.Engine.Admin\Scripts\Core\Znode\OrderSidePanel.js
D:\9.6.2 ZnodeUpgrade\ZnodeMultifront\Projects\Znode.Engine.Admin\Scripts\Core\Znode\OrderSidePanel.js.map
D:\9.6.2 ZnodeUpgrade\ZnodeMultifront\Projects\Znode.Engine.Admin\Scripts\Core\Znode\OrderTabs.js
D:\9.6.2 ZnodeUpgrade\ZnodeMultifront\Projects\Znode.Engine.Admin\Scripts\Core\Znode\OrderTabs.js.map
D:\9.6.2 ZnodeUpgrade\ZnodeMultifront\Projects\Znode.Engine.Admin\Scripts\Core\Znode\Payment.js
D:\9.6.2 ZnodeUpgrade\ZnodeMultifront\Projects\Znode.Engine.Admin\Scripts\Core\Znode\Payment.js.map
D:\9.6.2 ZnodeUpgrade\ZnodeMultifront\Projects\Znode.Engine.Admin\Scripts\Core\Znode\PIMAttributeFamily.js
D:\9.6.2 ZnodeUpgrade\ZnodeMultifront\Projects\Znode.Engine.Admin\Scripts\Core\Znode\PIMAttributeFamily.js.map
D:\9.6.2 ZnodeUpgrade\ZnodeMultifront\Projects\Znode.Engine.Admin\Scripts\Core\Znode\PIMAttributeGroup.js
D:\9.6.2 ZnodeUpgrade\ZnodeMultifront\Projects\Znode.Engine.Admin\Scripts\Core\Znode\PIMAttributeGroup.js.map
D:\9.6.2 ZnodeUpgrade\ZnodeMultifront\Projects\Znode.Engine.Admin\Scripts\Core\Znode\PostalCodeRegExp.js
D:\9.6.2 ZnodeUpgrade\ZnodeMultifront\Projects\Znode.Engine.Admin\Scripts\Core\Znode\PostalCodeRegExp.js.map
D:\9.6.2 ZnodeUpgrade\ZnodeMultifront\Projects\Znode.Engine.Admin\Scripts\Core\Znode\Price.js
D:\9.6.2 ZnodeUpgrade\ZnodeMultifront\Projects\Znode.Engine.Admin\Scripts\Core\Znode\Price.js.map
D:\9.6.2 ZnodeUpgrade\ZnodeMultifront\Projects\Znode.Engine.Admin\Scripts\Core\Znode\ProductAttribute.js
D:\9.6.2 ZnodeUpgrade\ZnodeMultifront\Projects\Znode.Engine.Admin\Scripts\Core\Znode\ProductAttribute.js.map
D:\9.6.2 ZnodeUpgrade\ZnodeMultifront\Projects\Znode.Engine.Admin\Scripts\Core\Znode\ProductFeed.js
D:\9.6.2 ZnodeUpgrade\ZnodeMultifront\Projects\Znode.Engine.Admin\Scripts\Core\Znode\ProductFeed.js.map
D:\9.6.2 ZnodeUpgrade\ZnodeMultifront\Projects\Znode.Engine.Admin\Scripts\Core\Znode\Products.js
D:\9.6.2 ZnodeUpgrade\ZnodeMultifront\Projects\Znode.Engine.Admin\Scripts\Core\Znode\Products.js.map
D:\9.6.2 ZnodeUpgrade\ZnodeMultifront\Projects\Znode.Engine.Admin\Scripts\Core\Znode\Profiles.js
D:\9.6.2 ZnodeUpgrade\ZnodeMultifront\Projects\Znode.Engine.Admin\Scripts\Core\Znode\Profiles.js.map
D:\9.6.2 ZnodeUpgrade\ZnodeMultifront\Projects\Znode.Engine.Admin\Scripts\Core\Znode\Promotion.js
D:\9.6.2 ZnodeUpgrade\ZnodeMultifront\Projects\Znode.Engine.Admin\Scripts\Core\Znode\Promotion.js.map
D:\9.6.2 ZnodeUpgrade\ZnodeMultifront\Projects\Znode.Engine.Admin\Scripts\Core\Znode\ProviderEngine.js
D:\9.6.2 ZnodeUpgrade\ZnodeMultifront\Projects\Znode.Engine.Admin\Scripts\Core\Znode\ProviderEngine.js.map
D:\9.6.2 ZnodeUpgrade\ZnodeMultifront\Projects\Znode.Engine.Admin\Scripts\Core\Znode\QuickOrder.js
D:\9.6.2 ZnodeUpgrade\ZnodeMultifront\Projects\Znode.Engine.Admin\Scripts\Core\Znode\QuickOrder.js.map
D:\9.6.2 ZnodeUpgrade\ZnodeMultifront\Projects\Znode.Engine.Admin\Scripts\Core\Znode\Quote.js
D:\9.6.2 ZnodeUpgrade\ZnodeMultifront\Projects\Znode.Engine.Admin\Scripts\Core\Znode\Quote.js.map
D:\9.6.2 ZnodeUpgrade\ZnodeMultifront\Projects\Znode.Engine.Admin\Scripts\Core\Znode\Recommendation.js
D:\9.6.2 ZnodeUpgrade\ZnodeMultifront\Projects\Znode.Engine.Admin\Scripts\Core\Znode\Recommendation.js.map
D:\9.6.2 ZnodeUpgrade\ZnodeMultifront\Projects\Znode.Engine.Admin\Scripts\Core\Znode\Review.js
D:\9.6.2 ZnodeUpgrade\ZnodeMultifront\Projects\Znode.Engine.Admin\Scripts\Core\Znode\Review.js.map
D:\9.6.2 ZnodeUpgrade\ZnodeMultifront\Projects\Znode.Engine.Admin\Scripts\Core\Znode\RMAConfiguration.js
D:\9.6.2 ZnodeUpgrade\ZnodeMultifront\Projects\Znode.Engine.Admin\Scripts\Core\Znode\RMAConfiguration.js.map
D:\9.6.2 ZnodeUpgrade\ZnodeMultifront\Projects\Znode.Engine.Admin\Scripts\Core\Znode\RMAManager.js
D:\9.6.2 ZnodeUpgrade\ZnodeMultifront\Projects\Znode.Engine.Admin\Scripts\Core\Znode\RMAManager.js.map
D:\9.6.2 ZnodeUpgrade\ZnodeMultifront\Projects\Znode.Engine.Admin\Scripts\Core\Znode\RMAReturn.js
D:\9.6.2 ZnodeUpgrade\ZnodeMultifront\Projects\Znode.Engine.Admin\Scripts\Core\Znode\RMAReturn.js.map
D:\9.6.2 ZnodeUpgrade\ZnodeMultifront\Projects\Znode.Engine.Admin\Scripts\Core\Znode\RoleAndAccessRight.js
D:\9.6.2 ZnodeUpgrade\ZnodeMultifront\Projects\Znode.Engine.Admin\Scripts\Core\Znode\RoleAndAccessRight.js.map
D:\9.6.2 ZnodeUpgrade\ZnodeMultifront\Projects\Znode.Engine.Admin\Scripts\Core\Znode\SalesRep.js
D:\9.6.2 ZnodeUpgrade\ZnodeMultifront\Projects\Znode.Engine.Admin\Scripts\Core\Znode\SalesRep.js.map
D:\9.6.2 ZnodeUpgrade\ZnodeMultifront\Projects\Znode.Engine.Admin\Scripts\Core\Znode\Search.js
D:\9.6.2 ZnodeUpgrade\ZnodeMultifront\Projects\Znode.Engine.Admin\Scripts\Core\Znode\Search.js.map
D:\9.6.2 ZnodeUpgrade\ZnodeMultifront\Projects\Znode.Engine.Admin\Scripts\Core\Znode\SearchConfiguration.js
D:\9.6.2 ZnodeUpgrade\ZnodeMultifront\Projects\Znode.Engine.Admin\Scripts\Core\Znode\SearchConfiguration.js.map
D:\9.6.2 ZnodeUpgrade\ZnodeMultifront\Projects\Znode.Engine.Admin\Scripts\Core\Znode\SearchReport.js
D:\9.6.2 ZnodeUpgrade\ZnodeMultifront\Projects\Znode.Engine.Admin\Scripts\Core\Znode\SearchReport.js.map
D:\9.6.2 ZnodeUpgrade\ZnodeMultifront\Projects\Znode.Engine.Admin\Scripts\Core\Znode\SEOSetting.js
D:\9.6.2 ZnodeUpgrade\ZnodeMultifront\Projects\Znode.Engine.Admin\Scripts\Core\Znode\SEOSetting.js.map
D:\9.6.2 ZnodeUpgrade\ZnodeMultifront\Projects\Znode.Engine.Admin\Scripts\Core\Znode\SessionTimeoutAlert.js
D:\9.6.2 ZnodeUpgrade\ZnodeMultifront\Projects\Znode.Engine.Admin\Scripts\Core\Znode\SessionTimeoutAlert.js.map
D:\9.6.2 ZnodeUpgrade\ZnodeMultifront\Projects\Znode.Engine.Admin\Scripts\Core\Znode\Shippings.js
D:\9.6.2 ZnodeUpgrade\ZnodeMultifront\Projects\Znode.Engine.Admin\Scripts\Core\Znode\Shippings.js.map
D:\9.6.2 ZnodeUpgrade\ZnodeMultifront\Projects\Znode.Engine.Admin\Scripts\Core\Znode\Store.js
D:\9.6.2 ZnodeUpgrade\ZnodeMultifront\Projects\Znode.Engine.Admin\Scripts\Core\Znode\Store.js.map
D:\9.6.2 ZnodeUpgrade\ZnodeMultifront\Projects\Znode.Engine.Admin\Scripts\Core\Znode\StoreExperience.js
D:\9.6.2 ZnodeUpgrade\ZnodeMultifront\Projects\Znode.Engine.Admin\Scripts\Core\Znode\StoreExperience.js.map
D:\9.6.2 ZnodeUpgrade\ZnodeMultifront\Projects\Znode.Engine.Admin\Scripts\Core\Znode\StoreLocator.js
D:\9.6.2 ZnodeUpgrade\ZnodeMultifront\Projects\Znode.Engine.Admin\Scripts\Core\Znode\StoreLocator.js.map
D:\9.6.2 ZnodeUpgrade\ZnodeMultifront\Projects\Znode.Engine.Admin\Scripts\Core\Znode\TaxClass.js
D:\9.6.2 ZnodeUpgrade\ZnodeMultifront\Projects\Znode.Engine.Admin\Scripts\Core\Znode\TaxClass.js.map
D:\9.6.2 ZnodeUpgrade\ZnodeMultifront\Projects\Znode.Engine.Admin\Scripts\Core\Znode\Template.js
D:\9.6.2 ZnodeUpgrade\ZnodeMultifront\Projects\Znode.Engine.Admin\Scripts\Core\Znode\Template.js.map
D:\9.6.2 ZnodeUpgrade\ZnodeMultifront\Projects\Znode.Engine.Admin\Scripts\Core\Znode\Theme.js
D:\9.6.2 ZnodeUpgrade\ZnodeMultifront\Projects\Znode.Engine.Admin\Scripts\Core\Znode\Theme.js.map
D:\9.6.2 ZnodeUpgrade\ZnodeMultifront\Projects\Znode.Engine.Admin\Scripts\Core\Znode\TouchPointConfiguration.js
D:\9.6.2 ZnodeUpgrade\ZnodeMultifront\Projects\Znode.Engine.Admin\Scripts\Core\Znode\TouchPointConfiguration.js.map
D:\9.6.2 ZnodeUpgrade\ZnodeMultifront\Projects\Znode.Engine.Admin\Scripts\Core\Znode\UrlManagement.js
D:\9.6.2 ZnodeUpgrade\ZnodeMultifront\Projects\Znode.Engine.Admin\Scripts\Core\Znode\UrlManagement.js.map
D:\9.6.2 ZnodeUpgrade\ZnodeMultifront\Projects\Znode.Engine.Admin\Scripts\Core\Znode\User.js
D:\9.6.2 ZnodeUpgrade\ZnodeMultifront\Projects\Znode.Engine.Admin\Scripts\Core\Znode\User.js.map
D:\9.6.2 ZnodeUpgrade\ZnodeMultifront\Projects\Znode.Engine.Admin\Scripts\Core\Znode\Vendor.js
D:\9.6.2 ZnodeUpgrade\ZnodeMultifront\Projects\Znode.Engine.Admin\Scripts\Core\Znode\Vendor.js.map
D:\9.6.2 ZnodeUpgrade\ZnodeMultifront\Projects\Znode.Engine.Admin\Scripts\Core\Znode\Warehouse.js
D:\9.6.2 ZnodeUpgrade\ZnodeMultifront\Projects\Znode.Engine.Admin\Scripts\Core\Znode\Warehouse.js.map
D:\9.6.2 ZnodeUpgrade\ZnodeMultifront\Projects\Znode.Engine.Admin\Scripts\Core\Znode\WebSite.js
D:\9.6.2 ZnodeUpgrade\ZnodeMultifront\Projects\Znode.Engine.Admin\Scripts\Core\Znode\WebSite.js.map
D:\9.6.2 ZnodeUpgrade\ZnodeMultifront\Projects\Znode.Engine.Admin\Scripts\Core\Znode\WidgetTemplate.js
D:\9.6.2 ZnodeUpgrade\ZnodeMultifront\Projects\Znode.Engine.Admin\Scripts\Core\Znode\WidgetTemplate.js.map
D:\9.6.2 ZnodeUpgrade\ZnodeMultifront\Projects\Znode.Engine.Admin\Scripts\Core\Znode\ZnodeNotification.js
D:\9.6.2 ZnodeUpgrade\ZnodeMultifront\Projects\Znode.Engine.Admin\Scripts\Core\Znode\ZnodeNotification.js.map
D:\9.6.2 ZnodeUpgrade\ZnodeMultifront\Projects\Znode.Engine.Admin\Scripts\Custom\CustomPortal.js
D:\9.6.2 ZnodeUpgrade\ZnodeMultifront\Projects\Znode.Engine.Admin\Scripts\Custom\CustomPortal.js.map
